A Heatmap-Like Visualization Tool • ggDoubleHeat
…
Alternatively, you can install the latest development version from Github with:

# install.packages("devtools")
devtools::install_github("PursuitOfDataScience/ggDoubleHeat")

Usage

For demonstration purposes, the built-in dataset pitts_tg is used to illustrate the basic usage of the package.

library(ggDoubleHeat)
library(ggplot2)
pitts_tg

## # A tibble: 270 x 6
##    msa         week week_start category          Twitter  Google
##    <chr>      <int> <date>     <chr>               <dbl>   <dbl>
##  1 Pittsburgh     1 2020-06-01 Covid              0.965  0.681  
##  2 Pittsburgh     1 2020-06-01 General Virus      0.538  0.0982 
##  3 Pittsburgh     1 2020-06-01 Masks              0.466  0.117  
##  4 Pittsburgh     1 2020-06-01 Sanitizing         0.0561 0.127  
##  5 Pittsburgh     1 2020-06-01 Social Distancing  0.294  0.0386 
##  6 Pittsburgh     1 2020-06-01 Symptoms           0.0457 0.0770 
##  7 Pittsburgh     1 2020-06-01 Tests              0.0130 0.00415
##  8 Pittsburgh     1 2020-06-01 Treatment          0.0459 0.0376 
##  9 Pittsburgh     1 2020-06-01 Working            0.295  0.160  
## 10 Pittsburgh     2 2020-06-08 Covid              1.01   0.707  
## # ... with 260 more rows
…
