…
Here in this section, two functions `geom_heat_grid()` and
`geom_heat_circle()` are illustrated.

For demostration purposes, the built-in dataset `pitts_tg` to illustrate
the basic usage of the package.

``` r
library(ggDoubleHeat)
library(ggplot2)
library(ggnewscale)
pitts_tg
```

    ## # A tibble: 270 x 6
    ##    msa         week week_start category          Twitter  Google
    ##    <chr>      <int> <date>     <chr>               <dbl>   <dbl>
    ##  1 Pittsburgh     1 2020-06-01 Covid              0.965  0.681  
    ##  2 Pittsburgh     1 2020-06-01 General Virus      0.538  0.0982 
    ##  3 Pittsburgh     1 2020-06-01 Masks              0.466  0.117  
    ##  4 Pittsburgh     1 2020-06-01 Sanitizing         0.0561 0.127  
    ##  5 Pittsburgh     1 2020-06-01 Social Distancing  0.294  0.0386 
    ##  6 Pittsburgh     1 2020-06-01 Symptoms           0.0457 0.0770 
    ##  7 Pittsburgh     1 2020-06-01 Tests              0.0130 0.00415
    ##  8 Pittsburgh     1 2020-06-01 Treatment          0.0459 0.0376 
    ##  9 Pittsburgh     1 2020-06-01 Working            0.295  0.160  
    ## 10 Pittsburgh     2 2020-06-08 Covid              1.01   0.707  
    ## # ... with 260 more rows
…
