Introduction to ggDoubleHeat • ggDoubleHeat
…
      introduction.Rmd

The ggDoubleHeat package is a ggplot2 extension. ggDoubleHeat plots are reformed heat maps that compare two sets of values with shared data attributes. They can be quite useful for visualizing data from two different sources with at least four dimensions in total, and can be generated in conjunction with using ggplot2 at ease.

When to use the package?

To begin with, it is necessary to introduce one of the built-in data sets in the package pitts_tg. This data set includes the weekly aggregated incidence rate for Google and Twitter COVID-related searches and tweets (with the keywords falling into the 9 categories) respectively in the Pittsburgh Metropolitan Statistical Area (MSA) in a 30-week period. For the complete data introduction, just type ?pitts_tg at the console.

Here is the structure of the data set:

library(ggplot2)
library(ggDoubleHeat)
pitts_tg
#> # A tibble: 270 × 6
#>    msa         week week_start category          Twitter  Google
#>    <chr>      <int> <date>     <chr>               <dbl>   <dbl>
#>  1 Pittsburgh     1 2020-06-01 Covid              0.965  0.681  
#>  2 Pittsburgh     1 2020-06-01 General Virus      0.538  0.0982 
#>  3 Pittsburgh     1 2020-06-01 Masks              0.466  0.117  
#>  4 Pittsburgh     1 2020-06-01 Sanitizing         0.0561 0.127  
#>  5 Pittsburgh     1 2020-06-01 Social Distancing  0.294  0.0386 
#>  6 Pittsburgh     1 2020-06-01 Symptoms           0.0457 0.0770 
#>  7 Pittsburgh     1 2020-06-01 Tests              0.0130 0.00415
#>  8 Pittsburgh     1 2020-06-01 Treatment          0.0459 0.0376 
#>  9 Pittsburgh     1 2020-06-01 Working            0.295  0.160  
#> 10 Pittsburgh     2 2020-06-08 Covid              1.01   0.707  
#> # … with 260 more rows
…
